[gd_scene load_steps=4 format=2]

[ext_resource path="res://scenes/vignettes/Loveometer.tscn" type="PackedScene" id=4]
[ext_resource path="res://addons/dialogic/Dialog.tscn" type="PackedScene" id=5]
[ext_resource path="res://scripts/first_dates.gd" type="Script" id=6]

[node name="first_dates" type="Node2D" groups=["date angio"]]
z_index = 1
script = ExtResource( 6 )

[node name="Dialog" parent="." instance=ExtResource( 5 )]
timeline = "timeline-1660927510.json"

[node name="Loveometer" parent="." instance=ExtResource( 4 )]
