[gd_scene load_steps=4 format=2]

[ext_resource path="res://art/minigames/cursor.png" type="Texture" id=1]
[ext_resource path="res://scripts/minigames/cursor.gd" type="Script" id=2]

[sub_resource type="RectangleShape2D" id=1]
extents = Vector2( 37.7705, 35 )

[node name="cursor" type="Sprite"]
position = Vector2( 500, 600 )
scale = Vector2( 0.953125, 1 )
texture = ExtResource( 1 )
script = ExtResource( 2 )

[node name="Area2D" type="Area2D" parent="."]

[node name="CollisionShape2D" type="CollisionShape2D" parent="Area2D"]
position = Vector2( 0, 2 )
shape = SubResource( 1 )
